[
    {
        "meta": {
            "id": "discover",
            "epic-id": "ZIG-6",
            "blocks": [
                "design"
            ]
        },
        "fields": {
            "project": {},
            "summary": "Discover:",
            "issuetype": {
                "name": "Task"
            },
            "customfield_10004": 2,
            "description": {
                "type": "doc",
                "version": 1,
                "content": [
                    {
                    "type": "paragraph",
                    "content": [
                        {
                        "text": "As a stakeholder, I need to have a discovery phase for the technology described in the summary of this task. ",
                        "type": "text"
                        }
                    ]
                    }
                ]
                }
        }
    },
    {
        "meta": {
            "id": "design",
            "epic-id": "ZIG-31",
            "blocks": [
                "review"
            ]
        },
        "fields": {
            "project": {},
            "summary": "Design:",
            "issuetype": {
                "name": "Task"
            },
            "customfield_10004": 4,
            "description": {
                "type": "doc",
                "version": 1,
                "content": [
                    {
                    "type": "paragraph",
                    "content": [
                        {
                        "text": "As a stakeholder, I need like to design and document an approach that meets the requirements, and fits within the standards and environment found in the discovery phase",
                        "type": "text"
                        }
                    ]
                    }
                ]
                }
        }
    },
    {
        "meta": {
            "id": "review",
            "epic-id": "ZIG-25",
            "blocks": [
                "implement"
            ]
        },
        "fields": {
            "project": {},
            "summary": "Customer Review:",
            "issuetype": {
                "name": "Task"
            },
            "customfield_10004": 2,
            "description": {
                "type": "doc",
                "version": 1,
                "content": [
                    {
                    "type": "paragraph",
                    "content": [
                        {
                        "text": "As a stakeholder, I would like to review the design that has been created with the customer for approval",
                        "type": "text"
                        }
                    ]
                    }
                ]
            }
        }
    },
    {
        "meta": {
            "id": "implement",
            "epic-id": "ZIG-32",
            "blocks": [
                "deploy"
            ]
        },
        "fields": {
            "project": {},
            "summary": "Implement:",
            "issuetype": {
                "name": "Task"
            },
            "customfield_10004": 6,
            "description": {
                "type": "doc",
                "version": 1,
                "content": [
                    {
                    "type": "paragraph",
                    "content": [
                        {
                        "text": "As a stakeholder, I would like to implement/code the created and approved design",
                        "type": "text"
                        }
                    ]
                    }
                ]
            }
        }
    },
    {
        "meta": {
            "id": "deploy",
            "epic-id": "ZIG-237",
            "blocks": [
            ]
        },
        "fields": {
            "project": {},
            "summary": "Deploy:",
            "issuetype": {
                "name": "Task"
            },
            "customfield_10004": 2,
            "description": {
                "type": "doc",
                "version": 1,
                "content": [
                    {
                    "type": "paragraph",
                    "content": [
                        {
                        "text": "As a stakeholder, I would like to deploy the completed and tested solution to the customer's approved env.",
                        "type": "text"
                        }
                    ]
                    }
                ]
            }
        }
    }
]
