[
    {
        "meta": {
            "id": "discover-patch-management",
            "blocks": [
                "customer-review"
            ]
        },
        "fields": {
            "project": {},
            "summary": "Discover: Patch Management",
            "issuetype": {
                "name": "Task"
            },
            "customfield_10004": 2,
            "description": {
                "type": "doc",
                "version": 1,
                "content": [
                    {
                    "type": "paragraph",
                    "content": [
                        {
                        "text": "As a stakeholder, I would like to review the environment and options for for patch management in the stack",
                        "type": "text"
                        }
                    ]
                    }
                ]
            }
        }
    },
    {
        "meta": {
            "id": "customer-review",
            "blocks": [
                "create-patch-management-process"
            ]
        },
        "fields": {
            "project": {},
            "summary": "Customer Review: Patch Management",
            "issuetype": {
                "name": "Task"
            },
            "customfield_10004": 2,
            "description": {
                "type": "doc",
                "version": 1,
                "content": [
                    {
                    "type": "paragraph",
                    "content": [
                        {
                        "text": "As a stakeholder, I would like to review the customers requirements for creating a formal patch management process",
                        "type": "text"
                        }
                    ]
                    }
                ]
            }
        }
    },
    {
        "meta": {
            "id": "create-patch-management-process",
            "blocks": [ "implement-patch-management" ]
        },
        "fields": {
            "project": {},
            "summary": "Create: Patch Management Process",
            "issuetype": {
                "name": "Task"
            },
            "customfield_10004": 8,
            "description": {
                "type": "doc",
                "version": 1,
                "content": [
                    {
                    "type": "paragraph",
                    "content": [
                        {
                        "text": "As a stakeholder, I would like to create a backup process plan document to meet the customers patching requirements",
                        "type": "text"
                        }
                    ]
                    }
                ]
            }
        }
    },
    {
        "meta": {
            "id": "implement-patch-management",
            "blocks": [
            ]
        },
        "fields": {
            "project": {},
            "summary": "Implement: Patch Management",
            "issuetype": {
                "name": "Task"
            },
            "customfield_10004": 8,
            "description": {
                "type": "doc",
                "version": 1,
                "content": [
                    {
                    "type": "paragraph",
                    "content": [
                        {
                        "text": "As a stakeholder, I would like to implement patch management for this stack within the AWS environment per the formal patch management process",
                        "type": "text"
                        }
                    ]
                    }
                ]
            }
        }
    }
]
