[
    {
        "meta": {
            "id": "discover-backup-strategy",
            "blocks": [
                "customer-review"
            ]
        },
        "fields": {
            "project": {},
            "summary": "Discover: Backup Process",
            "issuetype": {
                "name": "Task"
            },
            "customfield_10004": 2,
            "description": {
                "type": "doc",
                "version": 1,
                "content": [
                    {
                    "type": "paragraph",
                    "content": [
                        {
                        "text": "As a stakeholder, I would like to review the environment and options for for creating a formal backup process",
                        "type": "text"
                        }
                    ]
                    }
                ]
            }
        }
    },
    {
        "meta": {
            "id": "customer-review",
            "blocks": [
                "create-backup-plan"
            ]
        },
        "fields": {
            "project": {},
            "summary": "Customer Review: Backup Process",
            "issuetype": {
                "name": "Task"
            },
            "customfield_10004": 2,
            "description": {
                "type": "doc",
                "version": 1,
                "content": [
                    {
                    "type": "paragraph",
                    "content": [
                        {
                        "text": "As a stakeholder, I would like to review the customers requirements for creating a formal backup process",
                        "type": "text"
                        }
                    ]
                    }
                ]
            }
        }
    },
    {
        "meta": {
            "id": "create-backup-plan",
            "blocks": [ "implement-general" ]
        },
        "fields": {
            "project": {},
            "summary": "Create: Backup Plan",
            "issuetype": {
                "name": "Task"
            },
            "customfield_10004": 4,
            "description": {
                "type": "doc",
                "version": 1,
                "content": [
                    {
                    "type": "paragraph",
                    "content": [
                        {
                        "text": "As a stakeholder, I would like to create a backup process plan document to meet the customers backup requirements",
                        "type": "text"
                        }
                    ]
                    }
                ]
            }
        }
    },
    {
        "meta": {
            "id": "implement-general",
            "blocks": [
            ]
        },
        "fields": {
            "project": {},
            "summary": "Implement: Backup Process",
            "issuetype": {
                "name": "Task"
            },
            "customfield_10004": 4,
            "description": {
                "type": "doc",
                "version": 1,
                "content": [
                    {
                    "type": "paragraph",
                    "content": [
                        {
                        "text": "As a stakeholder, I would like to Implement the Backup needs in the AWS environment per the formal backup plan",
                        "type": "text"
                        }
                    ]
                    }
                ]
            }
        }
    }
]
