[
    {
        "meta": {
            "id": "discover-cw-instances",
            "blocks": [ ]
        },
        "fields": {
            "project": {},
            "summary": "Discover: CloudWatch Agent Requirements",
            "issuetype": {
                "name": "Task"
            },
            "customfield_10004": 1,
            "description": {
                "type": "doc",
                "version": 1,
                "content": [
                    {
                    "type": "paragraph",
                    "content": [
                        {
                        "text": "As a stakeholder, I would like to review the environment and find where CloudWatch Agent will be required",
                        "type": "text"
                        }
                    ]
                    }
                ]
            }
        }
    },
    {
        "meta": {
            "id": "create-cw-config",
            "blocks": [
                "deploy-cw-config"
            ]
        },
        "fields": {
            "project": {},
            "summary": "Create: CloudWatch Configurations",
            "issuetype": {
                "name": "Task"
            },
            "customfield_10004": 2,
            "description": {
                "type": "doc",
                "version": 1,
                "content": [
                    {
                    "type": "paragraph",
                    "content": [
                        {
                        "text": "As a stakeholder, I would like to create a CloudWatch agent configuration for each different need identified in discovery",
                        "type": "text"
                        }
                    ]
                    }
                ]
            }
        }
    },
    {
        "meta": {
            "id": "deploy-cw-config",
            "blocks": ["alarm-cw-config"]
        },
        "fields": {
            "project": {},
            "summary": "Deploy: CloudWatch Agent",
            "issuetype": {
                "name": "Task"
            },
            "customfield_10004": 4,
            "description": {
                "type": "doc",
                "version": 1,
                "content": [
                    {
                    "type": "paragraph",
                    "content": [
                        {
                        "text": "As a stakeholder, I would like to deploy the CloudWatch configurations created for the environment",
                        "type": "text"
                        }
                    ]
                    }
                ]
            }
        }
    },
    {
        "meta": {
            "id": "alarm-cw-config",
            "blocks": [ ]
        },
        "fields": {
            "project": {},
            "summary": "Alarm: CloudWatch Agent metric alarms",
            "issuetype": {
                "name": "Task"
            },
            "customfield_10004": 4,
            "description": {
                "type": "doc",
                "version": 1,
                "content": [
                    {
                    "type": "paragraph",
                    "content": [
                        {
                        "text": "As a stakeholder, optionally, I would like to deploy Alarms CloudWatch configurations created for the environment if desired",
                        "type": "text"
                        }
                    ]
                    }
                ]
            }
        }
    }
]
 