[
    {
        "meta": {
            "id": "discover-unencrypted-rds-databases",
            "blocks": [
                "customer-review"
            ]
        },
        "fields": {
            "project": {},
            "summary": "Discover: Unencrypted RDS databases",
            "issuetype": {
                "name": "Task"
            },
            "customfield_10004": 1,
            "description": {
                "type": "doc",
                "version": 1,
                "content": [
                    {
                    "type": "paragraph",
                    "content": [
                        {
                        "text": "As a stakeholder, I would like to have a discovery phase for the RDS Databases that are not encrypted",
                        "type": "text"
                        }
                    ]
                    }
                ]
                }
        }
    },
    {
        "meta": {
            "id": "customer-review",
            "blocks": [
                "implement-rds-encryption"
            ]
        },
        "fields": {
            "project": {},
            "summary": "Customer Review: Unencrypted RDS databases",
            "issuetype": {
                "name": "Task"
            },
            "customfield_10004": 2,
            "description": {
                "type": "doc",
                "version": 1,
                "content": [
                    {
                    "type": "paragraph",
                    "content": [
                        {
                        "text": "As a stakeholder, I would like to review with the customer the RDS databases that need to be encrypted, and identify the best path forward for the database type, and environemnt",
                        "type": "text"
                        }
                    ]
                    }
                ]
            }
        }
    },
    {
        "meta": {
            "id": "implement-rds-encryption",
            "blocks": []
        },
        "fields": {
            "project": {},
            "summary": "Implement: RDS Encryption",
            "issuetype": {
                "name": "Task"
            },
            "customfield_10004": 6,
            "description": {
                "type": "doc",
                "version": 1,
                "content": [
                    {
                    "type": "paragraph",
                    "content": [
                        {
                        "text": "As a stakeholder, I would like to implement RDS encryption as agreed upon in customer review",
                        "type": "text"
                        }
                    ]
                    }
                ]
            }
        }
    }
]
